{
	"title": "Cursor Hider",
	"compatibility": {
		"minimum": "10",
		"verified": "10",
		"maximum": "10"
	},
	"esmodules": [
		"main.js"
	],
	"languages": [
		{
			"lang": "en",
			"name": "English",
			"path": "languages/en.json"
		},
		{
			"lang": "es",
			"name": "Spanish",
			"path": "languages/es.json"
		},
		{
			"lang": "pt-BR",
			"name": "Português (Brasil)",
			"path": "languages/pt-BR.json"
		}
	],
	"relationships": {
		"requires": [
			{
				"id": "settings-extender"
			},
			{
				"id": "lib-wrapper"
			}
		]
	},
	"socket": true,
	"url": "https://gitlab.com/foundry-azzurite/cursor-hider"
}
